{
  "names": {
      "cykuza": "11be7dbc6e3640bca195f671f64a3bcf8cab3de344503568797bd43d82a5f8e9",
      "ghost": "ca2b9e538c683e43fcbbde6190aa208d5301a0980bbec66c5fc8c20e9bb358b6",
      "new_user": "hex_pub_key"
  }
}
